@startuml

skinparam linetype polyline
skinparam linetype ortho

package "Base de donnee" {
class Commande {
    id_commande:int
    quantite : double
    montant : double
}

class Article {
    id_article : int
    libelle : string
    price : double
    marque : string
    category : string
}

class Category {
    id_cat : int
    NameCat : string

}
class User {
    id_user : int
    name : string
    lastName : string
    identifiant : string
    password : 
    isAdmin : boolean
}
}

package "Ressources"{
    class PanierR{
       +getAllPanier(): list <Panier> ()
       +getPanier(int id_panier):Panier()
       +addPanier(int id_panier):Result
       +deletePanier(int id_panier):Result()
    }

    class ArticleR {
        +getAllArticle():List  <Article> ()
        +getArticle(int id_article): Article()
        +addArticle() :Result
        +updateArticle(int id_article, Article article):Result
        +deleteArticle (int id_article, Article article): Result
    
    }
    class UserR {
        +getAllUsers(): list<User>()
        +getUser(int id_user): User()
        +addUser(User user):Result()
        +updateUser(int id_user, User user):User()
        +deleteUser(int id_user):Result
    }
    class CategoryR {
        +getAllCategory() : list <Category> ()
        +getCategory(int id_cat): Category()
    }


}

package 'Backend'
{
    class Panier {
        id_panier :int
        name_article : string
        quantite : double 

    }
}
CategoryR -- Category
UserR - User
ArticleR - Article 
PanierR -- Panier
Commande - Article
Article - Category
User - Commande

@enduml