@startuml

skinparam linetype polyline
skinparam linetype ortho

package "CRUD" {
  interface Ressource {
    GET
    PUT
    POST
    DELETE
  }
}


package "BDD" #DDDDDD{
  class Article {
    -Libelle
    -Marque
    -Prix
    -Categorie
    -Photo
    +setPrix()
    +getPrix()
  }

  class Categorie {
    -id
    -name
  }

    class SousCategorie {
    -id
    -id_c
    -name
  }

  class Boutique {
    -Description
    -Adresse
    -Contact
  }

  class Panier {
    client_id
    article_id
    total
  }

  class User {
    firstname
    surname
    username
    password
    isAdmin
  }

  Article - Categorie
  Categorie o-- SousCategorie
  Article - Panier
  Article -- Boutique
  Panier - User
}

package "Front" #DDDDDD {
  class ArticleController {
    -articleAPI ArticleService
    +getArticle(int i)
    +getAllArticle()
    +addArticle(Article a)
    +delArticle(Article a)
    +setArticle(int i, Article a)
  }

  class BoutiqueController {
    -articleController ArticleController
    -panierController PanierController
    +rechercherArticle(String n)
    +connecter(String username, String pwd)
  }
  class Client {}
  class Admin {}

  class PanierController {
    HashSet<Int,Int> 
    +ajouterArticle(Article a)
    +enleverArticle(Int id)
    +updaterArticle(Int id, Article a)
    +checkDisponibilite()
    +validerPanier()
  }
}

package "Spring" #DDDDDD {

  class ArticleEntity {}

  class ArticleRepo {}

  class ArticleService {}


  ArticleEntity -- Article
  ArticleEntity -o ArticleRepo
  ArticleRepo - ArticleService 
  Client - PanierController
  Client - BoutiqueController
  Admin - ArticleController
}


ArticleController -- ArticleService
Boutique - BoutiqueController
BoutiqueController -- ArticleController
PanierController -- BoutiqueController 

@enduml