@startuml
actor Client

Client -> Panier

Panier -> ArticleController : Ajout au panier
ArticleController --> Article : POST
ArticleController --> Panier : id de l'article

Panier -> ArticleController : Enlever du panier
ArticleController --> Article : DELETE
ArticleController --> Panier

Panier -> ArticleController : Modifier l'article
ArticleController --> Article : PUT
ArticleController --> Panier

Panier -> ArticleController : Valider le panier
ArticleController --> Panier : prix total
Panier --> Client : Prix total à payer
Client --> Panier : valide le paiment
Panier --> ArticleController : supprimer la quantité d'article
ArticleController -> Panier : renvoie statut validation
Panier -> Client : commande validé
@enduml